<svg width="24" height="41" viewBox="0 0 24 41" fill="none" xmlns="http://www.w3.org/2000/svg">
<path d="M0 37.3349L3.6401 41L24 20.5L3.6401 0L0 3.66515L16.7198 20.5L0 37.3349H0Z" fill="white"/>
</svg>
